%YAML 1.1
%TAG !u! tag:unity3d.com,2011:
--- !u!1001 &8718253837843959710
PrefabInstance:
  m_ObjectHideFlags: 0
  serializedVersion: 2
  m_Modification:
    m_TransformParent: {fileID: 0}
    m_Modifications:
    - target: {fileID: 1467290796200131130, guid: 3a6000ac432a96445bc1a3e2da1c9b9f,
        type: 3}
      propertyPath: m_Name
      value: Blinky
      objectReference: {fileID: 0}
    - target: {fileID: 1467290796200131130, guid: 3a6000ac432a96445bc1a3e2da1c9b9f,
        type: 3}
      propertyPath: m_TagString
      value: Enemy
      objectReference: {fileID: 0}
    - target: {fileID: 5042877096303636830, guid: 3a6000ac432a96445bc1a3e2da1c9b9f,
        type: 3}
      propertyPath: waypoints.Array.size
      value: 0
      objectReference: {fileID: 0}
    - target: {fileID: 5042877096303636830, guid: 3a6000ac432a96445bc1a3e2da1c9b9f,
        type: 3}
      propertyPath: m_Enabled
      value: 1
      objectReference: {fileID: 0}
    - target: {fileID: 5042877096303636830, guid: 3a6000ac432a96445bc1a3e2da1c9b9f,
        type: 3}
      propertyPath: personalities
      value: 1
      objectReference: {fileID: 0}
    - target: {fileID: 5042877096303636830, guid: 3a6000ac432a96445bc1a3e2da1c9b9f,
        type: 3}
      propertyPath: aiState
      value: 1
      objectReference: {fileID: 0}
    - target: {fileID: 5042877096303636830, guid: 3a6000ac432a96445bc1a3e2da1c9b9f,
        type: 3}
      propertyPath: fleeDistance
      value: 5
      objectReference: {fileID: 0}
    - target: {fileID: 5042877096303636830, guid: 3a6000ac432a96445bc1a3e2da1c9b9f,
        type: 3}
      propertyPath: loopType
      value: 1
      objectReference: {fileID: 0}
    - target: {fileID: 5042877096303636830, guid: 3a6000ac432a96445bc1a3e2da1c9b9f,
        type: 3}
      propertyPath: AvoidanceTime
      value: 1
      objectReference: {fileID: 0}
    - target: {fileID: 5042877096303636830, guid: 3a6000ac432a96445bc1a3e2da1c9b9f,
        type: 3}
      propertyPath: aiSenseRadius
      value: 15
      objectReference: {fileID: 0}
    - target: {fileID: 5042877096303636830, guid: 3a6000ac432a96445bc1a3e2da1c9b9f,
        type: 3}
      propertyPath: player
      value: 
      objectReference: {fileID: 5930713846119956834, guid: d14dbc878a6f3ca4596c04668a4dd276,
        type: 3}
    - target: {fileID: 5042877096303636830, guid: 3a6000ac432a96445bc1a3e2da1c9b9f,
        type: 3}
      propertyPath: target
      value: 
      objectReference: {fileID: 5930713846120389954, guid: d14dbc878a6f3ca4596c04668a4dd276,
        type: 3}
    - target: {fileID: 5570979279071825710, guid: 3a6000ac432a96445bc1a3e2da1c9b9f,
        type: 3}
      propertyPath: moveSpeed
      value: 5
      objectReference: {fileID: 0}
    - target: {fileID: 5570979279071825710, guid: 3a6000ac432a96445bc1a3e2da1c9b9f,
        type: 3}
      propertyPath: reverseSpeed
      value: 3
      objectReference: {fileID: 0}
    - target: {fileID: 5570979279071825710, guid: 3a6000ac432a96445bc1a3e2da1c9b9f,
        type: 3}
      propertyPath: rotateSpeed
      value: 100
      objectReference: {fileID: 0}
    - target: {fileID: 5570979279071825710, guid: 3a6000ac432a96445bc1a3e2da1c9b9f,
        type: 3}
      propertyPath: pointValue
      value: 1
      objectReference: {fileID: 0}
    - target: {fileID: 1467290796199962138, guid: 3a6000ac432a96445bc1a3e2da1c9b9f,
        type: 3}
      propertyPath: m_LocalPosition.x
      value: 0
      objectReference: {fileID: 0}
    - target: {fileID: 1467290796199962138, guid: 3a6000ac432a96445bc1a3e2da1c9b9f,
        type: 3}
      propertyPath: m_LocalPosition.y
      value: 0.282
      objectReference: {fileID: 0}
    - target: {fileID: 1467290796199962138, guid: 3a6000ac432a96445bc1a3e2da1c9b9f,
        type: 3}
      propertyPath: m_LocalPosition.z
      value: 9
      objectReference: {fileID: 0}
    - target: {fileID: 1467290796199962138, guid: 3a6000ac432a96445bc1a3e2da1c9b9f,
        type: 3}
      propertyPath: m_LocalRotation.x
      value: 0
      objectReference: {fileID: 0}
    - target: {fileID: 1467290796199962138, guid: 3a6000ac432a96445bc1a3e2da1c9b9f,
        type: 3}
      propertyPath: m_LocalRotation.y
      value: 0
      objectReference: {fileID: 0}
    - target: {fileID: 1467290796199962138, guid: 3a6000ac432a96445bc1a3e2da1c9b9f,
        type: 3}
      propertyPath: m_LocalRotation.z
      value: 0
      objectReference: {fileID: 0}
    - target: {fileID: 1467290796199962138, guid: 3a6000ac432a96445bc1a3e2da1c9b9f,
        type: 3}
      propertyPath: m_LocalRotation.w
      value: 1
      objectReference: {fileID: 0}
    - target: {fileID: 1467290796199962138, guid: 3a6000ac432a96445bc1a3e2da1c9b9f,
        type: 3}
      propertyPath: m_RootOrder
      value: 0
      objectReference: {fileID: 0}
    - target: {fileID: 1467290796199962138, guid: 3a6000ac432a96445bc1a3e2da1c9b9f,
        type: 3}
      propertyPath: m_LocalEulerAnglesHint.x
      value: 0
      objectReference: {fileID: 0}
    - target: {fileID: 1467290796199962138, guid: 3a6000ac432a96445bc1a3e2da1c9b9f,
        type: 3}
      propertyPath: m_LocalEulerAnglesHint.y
      value: 0
      objectReference: {fileID: 0}
    - target: {fileID: 1467290796199962138, guid: 3a6000ac432a96445bc1a3e2da1c9b9f,
        type: 3}
      propertyPath: m_LocalEulerAnglesHint.z
      value: 0
      objectReference: {fileID: 0}
    - target: {fileID: 1431221351125678665, guid: 3a6000ac432a96445bc1a3e2da1c9b9f,
        type: 3}
      propertyPath: m_Enabled
      value: 0
      objectReference: {fileID: 0}
    m_RemovedComponents: []
  m_SourcePrefab: {fileID: 100100000, guid: 3a6000ac432a96445bc1a3e2da1c9b9f, type: 3}
